{
  "IcoMoonType": "selection",
  "icons": [
    {
      "icon": {
        "paths": [
          "M-22.261 578.783h1284.605v-133.565h-1284.605zM-22.261 133.565h1284.605v-133.565h-1284.605zM-22.261 1024h1284.605v-133.565h-1284.605z"
        ],
        "width": 1247,
        "attrs": [],
        "isMulticolor": false,
        "isMulticolor2": false,
        "colorPermutations": {
          "2542542541255255255190901": []
        },
        "tags": [
          "burger"
        ],
        "defaultCode": 59648,
        "grid": 0
      },
      "attrs": [],
      "properties": {
        "id": 0,
        "order": 4,
        "ligatures": "",
        "prevSize": 32,
        "code": 59648,
        "name": "burger"
      },
      "setIdx": 0,
      "setId": 2,
      "iconIdx": 0
    },
    {
      "icon": {
        "paths": [
          "M676.126 574.265l376.542 326.337-91.452 105.522-383.48-332.35c-59.343 40.712-131.181 64.534-208.583 64.534-203.878 0-369.154-165.276-369.154-369.154s165.276-369.154 369.154-369.154c203.878 0 369.154 165.276 369.154 369.154 0 75.899-22.905 146.448-62.181 205.111zM369.154 598.671c126.759 0 229.517-102.758 229.517-229.517s-102.758-229.517-229.517-229.517c-126.759 0-229.517 102.758-229.517 229.517s102.758 229.517 229.517 229.517z"
        ],
        "width": 1071,
        "attrs": [],
        "isMulticolor": false,
        "isMulticolor2": false,
        "colorPermutations": {
          "2542542541255255255190901": []
        },
        "tags": [
          "lupe"
        ],
        "defaultCode": 59649,
        "grid": 0
      },
      "attrs": [],
      "properties": {
        "id": 1,
        "order": 5,
        "ligatures": "",
        "prevSize": 32,
        "code": 59649,
        "name": "lupe"
      },
      "setIdx": 0,
      "setId": 2,
      "iconIdx": 1
    },
    {
      "icon": {
        "paths": [
          "M1024 426.667h-1024v170.667h1024z"
        ],
        "attrs": [],
        "isMulticolor": false,
        "isMulticolor2": false,
        "colorPermutations": {
          "2542542541255255255190901": []
        },
        "tags": [
          "minus"
        ],
        "defaultCode": 59650,
        "grid": 0
      },
      "attrs": [],
      "properties": {
        "id": 2,
        "order": 6,
        "ligatures": "",
        "prevSize": 32,
        "code": 59650,
        "name": "minus"
      },
      "setIdx": 0,
      "setId": 2,
      "iconIdx": 2
    },
    {
      "icon": {
        "paths": [
          "M597.333 597.333h426.667v-170.667h-426.667v-426.667h-170.667v426.667h-426.667v170.667h426.667v426.667h170.667v-426.667z"
        ],
        "attrs": [],
        "isMulticolor": false,
        "isMulticolor2": false,
        "colorPermutations": {
          "2542542541255255255190901": []
        },
        "tags": [
          "plus"
        ],
        "defaultCode": 59651,
        "grid": 0
      },
      "attrs": [],
      "properties": {
        "id": 3,
        "order": 7,
        "ligatures": "",
        "prevSize": 32,
        "code": 59651,
        "name": "plus"
      },
      "setIdx": 0,
      "setId": 2,
      "iconIdx": 3
    },
    {
      "icon": {
        "paths": [
          "M638.892 511.113l383.335-383.335-127.778-127.778-383.335 383.335-383.335-383.335-127.778 127.778 383.335 383.335-383.335 383.335 127.778 127.778 383.335-383.335 383.335 383.335 127.778-127.778-383.335-383.335z"
        ],
        "attrs": [],
        "isMulticolor": false,
        "isMulticolor2": false,
        "colorPermutations": {
          "2542542541255255255190901": []
        },
        "tags": [
          "cross"
        ],
        "defaultCode": 59652,
        "grid": 0
      },
      "attrs": [],
      "properties": {
        "id": 4,
        "order": 8,
        "ligatures": "",
        "prevSize": 32,
        "code": 59652,
        "name": "cross"
      },
      "setIdx": 0,
      "setId": 2,
      "iconIdx": 4
    },
    {
      "icon": {
        "paths": [
          "M584.953 744.359l185.837-185.837 103.44 103.44-362.039 362.039-362.039-362.039 103.44-103.44 185.076 185.076v-743.597h146.286v744.359z"
        ],
        "attrs": [],
        "isMulticolor": false,
        "isMulticolor2": false,
        "colorPermutations": {
          "2542542541255255255190901": []
        },
        "tags": [
          "pfeil_unten"
        ],
        "defaultCode": 59653,
        "grid": 0
      },
      "attrs": [],
      "properties": {
        "id": 5,
        "order": 9,
        "ligatures": "",
        "prevSize": 32,
        "code": 59653,
        "name": "pfeil_unten"
      },
      "setIdx": 0,
      "setId": 2,
      "iconIdx": 5
    },
    {
      "icon": {
        "paths": [
          "M439.047 279.641l-185.837 185.837-103.44-103.44 362.039-362.039 362.039 362.039-103.44 103.44-185.076-185.076v743.597h-146.286v-744.359z"
        ],
        "attrs": [],
        "isMulticolor": false,
        "isMulticolor2": false,
        "colorPermutations": {
          "2542542541255255255190901": []
        },
        "tags": [
          "pfeil_oben"
        ],
        "defaultCode": 59653,
        "grid": 0
      },
      "attrs": [],
      "properties": {
        "order": 2,
        "id": 19,
        "prevSize": 32,
        "code": 59667,
        "name": "pfeil_oben"
      },
      "setIdx": 0,
      "setId": 2,
      "iconIdx": 6
    },
    {
      "icon": {
        "paths": [
          "M804.841 395.473v262.813h146.286v-512h-512v146.286h261.736l-529.367 529.367 103.44 103.44 529.905-529.905z"
        ],
        "attrs": [],
        "isMulticolor": false,
        "isMulticolor2": false,
        "colorPermutations": {
          "2542542541255255255190901": []
        },
        "tags": [
          "pfeil_rechts-oben"
        ],
        "defaultCode": 59654,
        "grid": 0
      },
      "attrs": [],
      "properties": {
        "id": 6,
        "order": 10,
        "ligatures": "",
        "prevSize": 32,
        "code": 59654,
        "name": "pfeil_rechts-oben"
      },
      "setIdx": 0,
      "setId": 2,
      "iconIdx": 7
    },
    {
      "icon": {
        "paths": [
          "M628.527 804.841h-262.813v146.286h512v-512h-146.286v261.736l-529.367-529.367-103.44 103.44 529.905 529.905z"
        ],
        "attrs": [],
        "isMulticolor": false,
        "isMulticolor2": false,
        "colorPermutations": {
          "2542542541255255255190901": []
        },
        "tags": [
          "pfeil_rechts-oben"
        ],
        "defaultCode": 59654,
        "grid": 0
      },
      "attrs": [],
      "properties": {
        "order": 3,
        "id": 20,
        "prevSize": 32,
        "code": 59668,
        "name": "pfeil_rechts-unten"
      },
      "setIdx": 0,
      "setId": 2,
      "iconIdx": 8
    },
    {
      "icon": {
        "paths": [
          "M746.057 438.857l-190.171-182.857 102.4-102.4 307.2 307.2 58.514 51.2-358.4 358.4-102.4-102.4 182.857-182.857h-746.057v-146.286h746.057z"
        ],
        "attrs": [
          {
            "fill": "rgb(0, 90, 90)"
          }
        ],
        "isMulticolor": false,
        "isMulticolor2": false,
        "colorPermutations": {
          "2542542541255255255190901": [
            {
              "f": 0
            }
          ]
        },
        "tags": [
          "Pfeil_rechts"
        ],
        "grid": 0
      },
      "attrs": [
        {
          "fill": "rgb(0, 90, 90)"
        }
      ],
      "properties": {
        "order": 17,
        "id": 14,
        "name": "pfeil_rechts",
        "prevSize": 32,
        "code": 59662
      },
      "setIdx": 0,
      "setId": 2,
      "iconIdx": 9
    },
    {
      "icon": {
        "paths": [
          "M739.674 556.933l23.481-182.036h-180.28v-116.236c0-52.705 14.703-88.622 90.268-88.622l96.339-0.037v-162.833c-16.642-2.195-73.809-7.169-140.449-7.169-138.986 0-234.082 84.855-234.082 240.666v134.232h-157.237v182.036h157.237v467.067h187.924v-467.067h156.799z"
        ],
        "attrs": [],
        "isMulticolor": false,
        "isMulticolor2": false,
        "colorPermutations": {
          "2542542541255255255190901": []
        },
        "tags": [
          "facebook"
        ],
        "defaultCode": 59655,
        "grid": 0
      },
      "attrs": [],
      "properties": {
        "id": 7,
        "order": 11,
        "ligatures": "",
        "prevSize": 32,
        "code": 59655,
        "name": "facebook"
      },
      "setIdx": 0,
      "setId": 2,
      "iconIdx": 10
    },
    {
      "icon": {
        "paths": [
          "M240.197 146.286h543.642c51.669 0 93.875 41.279 93.875 91.735v531.281c0 50.456-42.206 91.7-93.875 91.7h-543.642c-51.633 0-93.911-41.244-93.911-91.7v-531.281c0-50.456 42.278-91.735 93.911-91.735v0zM679.133 225.679c-18.135 0-32.923 14.486-32.923 32.207v77.002c0 17.721 14.788 32.172 32.923 32.172h82.649c18.135 0 32.959-14.451 32.959-32.172v-77.002c0-17.721-14.824-32.207-32.959-32.207h-82.649zM795.029 448.529h-64.335c6.081 19.479 9.391 40.013 9.391 61.356 0 118.879-101.827 215.255-227.402 215.255-125.539 0-227.366-96.376-227.366-215.255 0-21.343 3.346-41.877 9.427-61.356h-67.141v301.962c0 15.611 13.061 28.34 29.037 28.34h509.352c16.012 0 29.037-12.728 29.037-28.34v-301.962zM512.684 363.017c-81.102 0-146.876 62.235-146.876 139.096 0 76.791 65.774 139.096 146.876 139.096 81.138 0 146.912-62.305 146.912-139.096 0-76.862-65.774-139.096-146.912-139.096v0z"
        ],
        "attrs": [],
        "isMulticolor": false,
        "isMulticolor2": false,
        "colorPermutations": {
          "2542542541255255255190901": []
        },
        "tags": [
          "instagram"
        ],
        "defaultCode": 59656,
        "grid": 0
      },
      "attrs": [],
      "properties": {
        "id": 8,
        "order": 12,
        "ligatures": "",
        "prevSize": 32,
        "code": 59656,
        "name": "instagram"
      },
      "setIdx": 0,
      "setId": 2,
      "iconIdx": 11
    },
    {
      "icon": {
        "paths": [
          "M797.504 87.686l-82.282-82.282-506.595 506.595 506.595 506.595 82.282-82.282-424.314-424.314z"
        ],
        "attrs": [],
        "isMulticolor": false,
        "isMulticolor2": false,
        "colorPermutations": {
          "2542542541255255255190901": []
        },
        "tags": [
          "chevron-links"
        ],
        "defaultCode": 59657,
        "grid": 0
      },
      "attrs": [],
      "properties": {
        "order": 23,
        "id": 9,
        "prevSize": 32,
        "code": 59665,
        "name": "chevron-links"
      },
      "setIdx": 0,
      "setId": 2,
      "iconIdx": 12
    },
    {
      "icon": {
        "paths": [
          "M226.496 936.314l82.282 82.282 506.595-506.595-506.595-506.595-82.282 82.282 424.314 424.314z"
        ],
        "attrs": [],
        "isMulticolor": false,
        "isMulticolor2": false,
        "colorPermutations": {
          "2542542541255255255190901": []
        },
        "tags": [
          "chevron-rechts"
        ],
        "defaultCode": 59658,
        "grid": 0
      },
      "attrs": [],
      "properties": {
        "id": 10,
        "order": 14,
        "ligatures": "",
        "prevSize": 32,
        "code": 59658,
        "name": "chevron-rechts"
      },
      "setIdx": 0,
      "setId": 2,
      "iconIdx": 13
    },
    {
      "icon": {
        "paths": [
          "M87.686 226.496l-82.282 82.282 506.595 506.595 506.595-506.595-82.282-82.282-424.314 424.314z"
        ],
        "attrs": [],
        "isMulticolor": false,
        "isMulticolor2": false,
        "colorPermutations": {
          "2542542541255255255190901": []
        },
        "tags": [
          "chevron-links"
        ],
        "defaultCode": 59657,
        "grid": 0
      },
      "attrs": [],
      "properties": {
        "id": 18,
        "order": 13,
        "ligatures": "",
        "prevSize": 32,
        "code": 59657,
        "name": "chevron-oben"
      },
      "setIdx": 0,
      "setId": 2,
      "iconIdx": 14
    },
    {
      "icon": {
        "paths": [
          "M936.314 797.504l82.282-82.282-506.595-506.595-506.595 506.595 82.282 82.282 424.314-424.314z"
        ],
        "attrs": [],
        "isMulticolor": false,
        "isMulticolor2": false,
        "colorPermutations": {
          "2542542541255255255190901": []
        },
        "tags": [
          "chevron-links"
        ],
        "defaultCode": 59657,
        "grid": 0
      },
      "attrs": [],
      "properties": {
        "order": 24,
        "id": 17,
        "prevSize": 32,
        "code": 59666,
        "name": "chevron-unten"
      },
      "setIdx": 0,
      "setId": 2,
      "iconIdx": 15
    },
    {
      "icon": {
        "paths": [
          "M512 1013.961c-277.23 0-501.961-224.724-501.961-501.961s224.73-501.961 501.961-501.961c277.23 0 501.961 224.724 501.961 501.961s-224.73 501.961-501.961 501.961zM512 913.569c221.786 0 401.569-179.778 401.569-401.569s-179.783-401.569-401.569-401.569c-221.786 0-401.569 179.778-401.569 401.569s179.783 401.569 401.569 401.569zM345.996 741.828l70.988 70.988 293.645-293.645-293.645-293.645-70.988 70.988 222.657 222.657z"
        ],
        "attrs": [],
        "isMulticolor": false,
        "isMulticolor2": false,
        "colorPermutations": {
          "2542542541255255255190901": []
        },
        "tags": [
          "play"
        ],
        "defaultCode": 59659,
        "grid": 0
      },
      "attrs": [],
      "properties": {
        "id": 11,
        "order": 15,
        "ligatures": "",
        "prevSize": 32,
        "code": 59659,
        "name": "play"
      },
      "setIdx": 0,
      "setId": 2,
      "iconIdx": 16
    },
    {
      "icon": {
        "paths": [
          "M1024 512c0 282.77-229.23 512-512 512s-512-229.23-512-512c0-282.77 229.23-512 512-512s512 229.23 512 512z"
        ],
        "attrs": [],
        "isMulticolor": false,
        "isMulticolor2": false,
        "colorPermutations": {
          "2542542541255255255190901": []
        },
        "tags": [
          "bullet"
        ],
        "defaultCode": 59660,
        "grid": 0
      },
      "attrs": [],
      "properties": {
        "id": 12,
        "order": 16,
        "ligatures": "",
        "prevSize": 32,
        "code": 59660,
        "name": "bullet"
      },
      "setIdx": 0,
      "setId": 2,
      "iconIdx": 17
    },
    {
      "icon": {
        "paths": [
          "M950.875 230.045c-32.286 14.219-67.036 23.809-103.427 28.142 37.176-22.143 65.766-57.098 79.166-98.83-34.749 20.477-73.269 35.362-114.289 43.361-32.883-34.733-79.689-56.432-131.496-56.432-99.434 0-180.055 80.019-180.055 178.663 0 13.997 1.605 27.623 4.628 40.695-149.636-7.443-282.288-78.538-371.159-186.699-15.453 26.438-24.336 57.098-24.336 89.869 0 61.949 31.763 116.677 80.062 148.67-29.487-0.889-57.256-8.998-81.555-22.328v2.222c0 86.536 62.109 158.779 144.447 175.183-15.079 4.073-31.054 6.295-47.44 6.295-11.571 0-22.917-1.148-33.891-3.259 22.917 70.984 89.43 122.639 168.186 124.12-61.586 47.878-139.222 76.464-223.651 76.464-14.482 0-28.815-0.889-42.924-2.518 79.689 50.655 174.345 80.241 276.092 80.241 331.221 0 512.322-272.161 512.322-508.256 0-7.739-0.187-15.441-0.485-23.143 35.123-25.142 65.617-56.617 89.804-92.461z"
        ],
        "attrs": [],
        "isMulticolor": false,
        "isMulticolor2": false,
        "colorPermutations": {
          "2542542541255255255190901": []
        },
        "tags": [
          "twitter"
        ],
        "defaultCode": 59661,
        "grid": 0
      },
      "attrs": [],
      "properties": {
        "id": 13,
        "order": 3,
        "ligatures": "",
        "prevSize": 32,
        "code": 59661,
        "name": "twitter"
      },
      "setIdx": 0,
      "setId": 2,
      "iconIdx": 18
    },
    {
      "icon": {
        "paths": [
          "M364.495 724.114c-117.029 0-212.114-91.429-212.114-204.8s95.086-204.8 212.114-204.8 212.114 91.429 212.114 204.8-95.086 204.8-212.114 204.8zM364.495 376.686c-80.457 0-146.286 62.171-146.286 142.629s65.829 142.629 146.286 142.629 146.286-62.171 146.286-142.629-65.829-142.629-146.286-142.629z",
          "M364.495 559.543c21.943 0 43.886-18.286 43.886-40.229s-18.286-40.229-43.886-40.229-43.886 18.286-43.886 40.229 21.943 40.229 43.886 40.229z",
          "M364.495 870.4c-201.143 0-365.714-160.914-365.714-358.4s164.571-358.4 365.714-358.4 365.714 160.914 365.714 358.4-164.571 358.4-365.714 358.4zM364.495 219.429c-164.571 0-299.886 131.657-299.886 292.571s135.314 292.571 299.886 292.571 299.886-131.657 299.886-292.571-131.657-292.571-299.886-292.571z"
        ],
        "width": 731,
        "attrs": [
          {},
          {},
          {}
        ],
        "isMulticolor": false,
        "isMulticolor2": false,
        "colorPermutations": {
          "2542542541255255255190901": [
            {},
            {},
            {}
          ]
        },
        "tags": [
          "Podcast"
        ],
        "grid": 0
      },
      "attrs": [
        {},
        {},
        {}
      ],
      "properties": {
        "order": 21,
        "id": 15,
        "name": "podcast",
        "prevSize": 32,
        "code": 59663
      },
      "setIdx": 0,
      "setId": 2,
      "iconIdx": 19
    },
    {
      "icon": {
        "paths": [
          "M365.714 877.714c-201.143 0-365.714-164.571-365.714-365.714s164.571-365.714 365.714-365.714c201.143 0 365.714 164.571 365.714 365.714s-164.571 365.714-365.714 365.714zM365.714 230.4c-157.257 0-285.257 128-285.257 281.6s128 281.6 285.257 281.6 285.257-128 285.257-281.6-128-281.6-285.257-281.6z",
          "M281.6 457.143l-29.257 113.371h-21.943l-21.943-65.829-21.943 65.829h-21.943l-29.257-113.371h21.943l18.286 84.114 21.943-69.486h18.286l21.943 69.486 18.286-84.114h25.6z",
          "M438.857 457.143l-29.257 113.371h-21.943l-21.943-69.486-21.943 65.829h-21.943l-29.257-109.714h21.943l18.286 84.114 21.943-69.486h18.286l21.943 69.486 18.286-84.114h25.6z",
          "M596.114 457.143l-29.257 113.371h-21.943l-21.943-65.829-21.943 65.829h-21.943l-29.257-113.371h25.6l18.286 84.114 21.943-69.486h18.286l21.943 69.486 18.286-84.114h21.943z"
        ],
        "width": 731,
        "attrs": [
          {},
          {},
          {},
          {}
        ],
        "isMulticolor": false,
        "isMulticolor2": false,
        "colorPermutations": {
          "2542542541255255255190901": [
            {},
            {},
            {},
            {}
          ]
        },
        "tags": [
          "www"
        ],
        "grid": 0
      },
      "attrs": [
        {},
        {},
        {},
        {}
      ],
      "properties": {
        "order": 22,
        "id": 16,
        "name": "www",
        "prevSize": 32,
        "code": 59664
      },
      "setIdx": 0,
      "setId": 2,
      "iconIdx": 20
    }
  ],
  "height": 1024,
  "metadata": {
    "name": "icomoon"
  },
  "preferences": {
    "showGlyphs": true,
    "showQuickUse": true,
    "showQuickUse2": true,
    "showSVGs": true,
    "fontPref": {
      "prefix": "icon-",
      "metadata": {
        "fontFamily": "icomoon"
      },
      "metrics": {
        "emSize": 1024,
        "baseline": 6.25,
        "whitespace": 50
      },
      "embed": false
    },
    "imagePref": {
      "prefix": "icon-",
      "png": true,
      "useClassSelector": true,
      "color": 0,
      "bgColor": 16777215,
      "classSelector": ".icon"
    },
    "historySize": 50,
    "showCodes": true,
    "gridSize": 16
  }
}