<?xml version="1.0" encoding="UTF-8"?>
<svg width="28px" height="23px" viewBox="0 0 28 23" version="1.1" xmlns="http://www.w3.org/2000/svg" xmlns:xlink="http://www.w3.org/1999/xlink">
    <!-- Generator: Sketch 42 (36781) - http://www.bohemiancoding.com/sketch -->
    <title>Burger Menü grün</title>
    <desc>Created with Sketch.</desc>
    <defs></defs>
    <g id="0_Icon-Font" stroke="none" stroke-width="1" fill="none" fill-rule="evenodd">
        <g id="Burger-Menü-grün" fill-rule="nonzero" fill="#005A5A">
            <polygon id="Line-Copy" points="-0.5 13 28.3534364 13 28.3534364 10 -0.5 10"></polygon>
            <polygon id="Line" points="-0.5 3 28.3534364 3 28.3534364 4.4408921e-15 -0.5 4.4408921e-15"></polygon>
            <polygon id="Line-Copy" points="-0.5 23 28.3534364 23 28.3534364 20 -0.5 20"></polygon>
        </g>
    </g>
</svg>