<?xml version="1.0" encoding="utf-8"?>
<!-- Generator: Adobe Illustrator 21.0.2, SVG Export Plug-In . SVG Version: 6.00 Build 0)  -->
<svg version="1.1" id="Ebene_1" xmlns="http://www.w3.org/2000/svg" xmlns:xlink="http://www.w3.org/1999/xlink" x="0px" y="0px"
	 viewBox="0 0 14 14" style="enable-background:new 0 0 14 14;" xml:space="preserve">
<style type="text/css">
	.st0{fill:#005A5A;}
</style>
<title>grüner Pfeil_unten</title>
<desc>Created with Sketch.</desc>
<g id="_x30__x5F_Icon-Font">
	<g id="grüner-Pfeil_unten">
		<path id="Combined-Shape" class="st0" d="M10.2,6L7.6,3.5l1.4-1.4l4.2,4.2L14,7l-4.9,4.9l-1.4-1.4L10.2,8H0l0-2H10.2z"/>
	</g>
</g>
</svg>
