<?xml version="1.0" encoding="UTF-8"?>
<svg width="10px" height="10px" viewBox="0 0 10 10" version="1.1" xmlns="http://www.w3.org/2000/svg" xmlns:xlink="http://www.w3.org/1999/xlink">
    <!-- Generator: Sketch 42 (36781) - http://www.bohemiancoding.com/sketch -->
    <title>Seitenmenü</title>
    <desc>Created with Sketch.</desc>
    <defs></defs>
    <g id="0_Icon-Font" stroke="none" stroke-width="1" fill="none" fill-rule="evenodd">
        <g id="Seitenmenü" fill="#54FF97">
            <circle id="Oval-Copy" cx="5" cy="5" r="5"></circle>
        </g>
    </g>
</svg>